2021-04-14 17:53:16.034  INFO 10864 --- [main] .e.s.SpringBootDefaultLoggingApplication : Starting SpringBootDefaultLoggingApplication using Java 1.8.0_281 on DESKTOP-EB5GR7I with PID 10864 (C:\Users\Gau\eclipse-workspace2\Springboot\SpringBootDefaultLogging\target\classes started by Gau in C:\Users\Gau\eclipse-workspace2\Springboot\SpringBootDefaultLogging)
2021-04-14 17:53:16.040  INFO 10864 --- [main] .e.s.SpringBootDefaultLoggingApplication : No active profile set, falling back to default profiles: default
2021-04-14 17:53:17.649  INFO 10864 --- [main] o.s.b.w.embedded.tomcat.TomcatWebServer  : Tomcat initialized with port(s): 8080 (http)
2021-04-14 17:53:17.660  INFO 10864 --- [main] o.apache.catalina.core.StandardService   : Starting service [Tomcat]
2021-04-14 17:53:17.661  INFO 10864 --- [main] org.apache.catalina.core.StandardEngine  : Starting Servlet engine: [Apache Tomcat/9.0.44]
2021-04-14 17:53:17.766  INFO 10864 --- [main] o.a.c.c.C.[Tomcat].[localhost].[/]       : Initializing Spring embedded WebApplicationContext
2021-04-14 17:53:17.766  INFO 10864 --- [main] w.s.c.ServletWebServerApplicationContext : Root WebApplicationContext: initialization completed in 1623 ms
2021-04-14 17:53:18.015  INFO 10864 --- [main] o.s.s.concurrent.ThreadPoolTaskExecutor  : Initializing ExecutorService 'applicationTaskExecutor'
2021-04-14 17:53:18.269  INFO 10864 --- [main] o.s.b.w.embedded.tomcat.TomcatWebServer  : Tomcat started on port(s): 8080 (http) with context path ''
2021-04-14 17:53:18.283  INFO 10864 --- [main] .e.s.SpringBootDefaultLoggingApplication : Started SpringBootDefaultLoggingApplication in 3.141 seconds (JVM running for 5.024)
2021-04-14 17:53:25.160  INFO 10864 --- [http-nio-8080-exec-1] o.a.c.c.C.[Tomcat].[localhost].[/]       : Initializing Spring DispatcherServlet 'dispatcherServlet'
2021-04-14 17:53:25.161  INFO 10864 --- [http-nio-8080-exec-1] o.s.web.servlet.DispatcherServlet        : Initializing Servlet 'dispatcherServlet'
2021-04-14 17:53:25.162  INFO 10864 --- [http-nio-8080-exec-1] o.s.web.servlet.DispatcherServlet        : Completed initialization in 1 ms
2021-04-14 17:53:25.191  INFO 10864 --- [http-nio-8080-exec-1] c.e.s.controller.MainController          : This is INFO
2021-04-14 17:53:25.191  WARN 10864 --- [http-nio-8080-exec-1] c.e.s.controller.MainController          : This is WARN
2021-04-14 17:53:25.191 ERROR 10864 --- [http-nio-8080-exec-1] c.e.s.controller.MainController          : This is ERROR
2021-04-14 17:53:28.827  INFO 10864 --- [http-nio-8080-exec-4] c.e.s.controller.MainController          : This is INFO
2021-04-14 17:53:28.828  WARN 10864 --- [http-nio-8080-exec-4] c.e.s.controller.MainController          : This is WARN
2021-04-14 17:53:28.829 ERROR 10864 --- [http-nio-8080-exec-4] c.e.s.controller.MainController          : This is ERROR
2021-04-14 17:53:29.857  INFO 10864 --- [http-nio-8080-exec-5] c.e.s.controller.MainController          : This is INFO
2021-04-14 17:53:29.857  WARN 10864 --- [http-nio-8080-exec-5] c.e.s.controller.MainController          : This is WARN
2021-04-14 17:53:29.858 ERROR 10864 --- [http-nio-8080-exec-5] c.e.s.controller.MainController          : This is ERROR
